module gitlab.com/gaia-x/data-infrastructure-federation-services/cam

go 1.18

// runtime dependencies
require (
	clouditor.io/clouditor v1.4.20
	github.com/Fraunhofer-AISEC/cmc v0.4.0
	github.com/go-co-op/gocron v1.15.0
	github.com/google/uuid v1.3.0
	github.com/gophercloud/gophercloud v0.25.0
	github.com/grpc-ecosystem/grpc-gateway/v2 v2.10.3
	github.com/sirupsen/logrus v1.8.1
	github.com/spf13/cobra v1.5.0
	github.com/spf13/viper v1.12.0
	golang.org/x/oauth2 v0.0.0-20220630143837-2104d58473e0
	google.golang.org/genproto v0.0.0-20220712132514-bdd2acd4974d
	google.golang.org/grpc v1.47.0
	google.golang.org/protobuf v1.28.0
	gorm.io/gorm v1.23.8
	k8s.io/client-go v0.24.2
)

// testing dependencies
require github.com/stretchr/testify v1.8.0

// tool dependencies
require (
	github.com/google/addlicense v1.0.0
	github.com/google/gnostic v0.6.9
	github.com/srikrsna/protoc-gen-gotag v0.6.2
	google.golang.org/grpc/cmd/protoc-gen-go-grpc v1.2.0
)

require (
	github.com/MicahParks/keyfunc v1.1.0 // indirect
	github.com/OneOfOne/xxhash v1.2.8 // indirect
	github.com/PuerkitoBio/purell v1.1.1 // indirect
	github.com/PuerkitoBio/urlesc v0.0.0-20170810143723-de5bf2ad4578 // indirect
	github.com/agnivade/levenshtein v1.0.1 // indirect
	github.com/bmatcuk/doublestar/v4 v4.0.2 // indirect
	github.com/davecgh/go-spew v1.1.1 // indirect
	github.com/emicklei/go-restful v2.9.5+incompatible // indirect
	github.com/fatih/structtag v1.2.0 // indirect
	github.com/fsnotify/fsnotify v1.5.4 // indirect
	github.com/ghodss/yaml v1.0.0 // indirect
	github.com/go-logr/logr v1.2.3 // indirect
	github.com/go-openapi/jsonpointer v0.19.5 // indirect
	github.com/go-openapi/jsonreference v0.19.5 // indirect
	github.com/go-openapi/swag v0.19.14 // indirect
	github.com/gobwas/glob v0.2.3 // indirect
	github.com/gogo/protobuf v1.3.2 // indirect
	github.com/golang-jwt/jwt/v4 v4.4.1 // indirect
	github.com/golang/glog v1.0.0 // indirect
	github.com/golang/protobuf v1.5.2 // indirect
	github.com/google/go-tpm v0.3.3 // indirect
	github.com/google/gofuzz v1.2.0 // indirect
	github.com/grpc-ecosystem/go-grpc-middleware v1.3.0 // indirect
	github.com/hashicorp/hcl v1.0.0 // indirect
	github.com/imdario/mergo v0.3.12 // indirect
	github.com/inconshreveable/mousetrap v1.0.0 // indirect
	github.com/jackc/chunkreader/v2 v2.0.1 // indirect
	github.com/jackc/pgconn v1.11.0 // indirect
	github.com/jackc/pgio v1.0.0 // indirect
	github.com/jackc/pgpassfile v1.0.0 // indirect
	github.com/jackc/pgproto3/v2 v2.2.0 // indirect
	github.com/jackc/pgservicefile v0.0.0-20200714003250-2b9c44734f2b // indirect
	github.com/jackc/pgtype v1.10.0 // indirect
	github.com/jackc/pgx/v4 v4.15.0 // indirect
	github.com/jinzhu/inflection v1.0.0 // indirect
	github.com/jinzhu/now v1.1.5 // indirect
	github.com/josharian/intern v1.0.0 // indirect
	github.com/json-iterator/go v1.1.12 // indirect
	github.com/logrusorgru/aurora/v3 v3.0.0 // indirect
	github.com/lyft/protoc-gen-star v0.5.3 // indirect
	github.com/magiconair/properties v1.8.6 // indirect
	github.com/mailru/easyjson v0.7.6 // indirect
	github.com/mattn/go-sqlite3 v1.14.12 // indirect
	github.com/mitchellh/mapstructure v1.5.0 // indirect
	github.com/modern-go/concurrent v0.0.0-20180306012644-bacd9c7ef1dd // indirect
	github.com/modern-go/reflect2 v1.0.2 // indirect
	github.com/munnerz/goautoneg v0.0.0-20191010083416-a7dc8b61c822 // indirect
	github.com/open-policy-agent/opa v0.42.0 // indirect
	github.com/pelletier/go-toml v1.9.5 // indirect
	github.com/pelletier/go-toml/v2 v2.0.1 // indirect
	github.com/pkg/errors v0.9.1 // indirect
	github.com/pmezard/go-difflib v1.0.0 // indirect
	github.com/rcrowley/go-metrics v0.0.0-20201227073835-cf1acfcdf475 // indirect
	github.com/robfig/cron/v3 v3.0.1 // indirect
	github.com/spf13/afero v1.8.2 // indirect
	github.com/spf13/cast v1.5.0 // indirect
	github.com/spf13/jwalterweatherman v1.1.0 // indirect
	github.com/spf13/pflag v1.0.5 // indirect
	github.com/subosito/gotenv v1.3.0 // indirect
	github.com/vektah/gqlparser/v2 v2.4.5 // indirect
	github.com/xeipuuv/gojsonpointer v0.0.0-20190905194746-02993c407bfb // indirect
	github.com/xeipuuv/gojsonreference v0.0.0-20180127040603-bd5ef7bd5415 // indirect
	github.com/yashtewari/glob-intersection v0.1.0 // indirect
	golang.org/x/crypto v0.0.0-20220525230936-793ad666bf5e // indirect
	golang.org/x/exp v0.0.0-20220414153411-bcd21879b8fd // indirect
	golang.org/x/net v0.0.0-20220624214902-1bab6f366d9e // indirect
	golang.org/x/sync v0.0.0-20220601150217-0de741cfad7f // indirect
	golang.org/x/sys v0.0.0-20220520151302-bc2c85ada10a // indirect
	golang.org/x/term v0.0.0-20210927222741-03fcf44c2211 // indirect
	golang.org/x/text v0.3.7 // indirect
	golang.org/x/time v0.0.0-20220210224613-90d013bbcef8 // indirect
	google.golang.org/appengine v1.6.7 // indirect
	gopkg.in/inf.v0 v0.9.1 // indirect
	gopkg.in/ini.v1 v1.66.4 // indirect
	gopkg.in/square/go-jose.v2 v2.6.0 // indirect
	gopkg.in/yaml.v2 v2.4.0 // indirect
	gopkg.in/yaml.v3 v3.0.1 // indirect
	gorm.io/driver/postgres v1.3.4 // indirect
	gorm.io/driver/sqlite v1.3.1 // indirect
	k8s.io/api v0.24.2 // indirect
	k8s.io/apimachinery v0.24.2 // indirect
	k8s.io/klog/v2 v2.60.1 // indirect
	k8s.io/kube-openapi v0.0.0-20220328201542-3ee0da9b0b42 // indirect
	k8s.io/utils v0.0.0-20220210201930-3a6ce19ff2f9 // indirect
	sigs.k8s.io/json v0.0.0-20211208200746-9f7c6b3444d2 // indirect
	sigs.k8s.io/structured-merge-diff/v4 v4.2.1 // indirect
	sigs.k8s.io/yaml v1.3.0 // indirect
)
