[
  {
    "id": "SystemComponentsIntegrity",
    "name": "SystemComponentsIntegrity",
    "description": "This metric is used to assess whether the deployed system components were started without modifications",
    "scale": 1,
    "allowedValues": {
      "values": [
        false,
        true
      ]
    }
  },
  {
    "id": "CyberSecurityCertification",
    "name": "CyberSecurityCertification",
    "description": "This metric is used to assess if the service provider or service holds a valid cyber security certification, such as ISO 27001.",
    "scale": 1,
    "allowedValues": {
      "values": [
        "valid",
        "invalid",
        "not available"
      ]
    }
  },
  {
    "id": "OAuthGrantTypes",
    "name": "OAuthGrantTypes",
    "description": "This metric is used to assess that no deprecated grant types are used in an OAuth 2.0 configuration.",
    "scale": 1,
    "allowedValues": {
      "values": [
        "authorization_code",
        "implicit",
        "password",
        "client_credentials",
        "device_code",
        "refresh_token"
      ]
    }
  },
  {
    "id": "TlsVersion",
    "name:": "TlsVersion",
    "description": "This metric is used to assess if up-to-date encryption protocols are used for traffic served from public networks.",
    "scale": 2,
    "allowedValues": {
      "values": [
        1.0,
        1.1,
        1.2,
        1.3
      ]
    }
  },
  {
    "id": "TlsCipherSuite",
    "name": "TlsCipherSuite",
    "description": "This metric is used to assess if strong encryption mechanisms are used for traffic served from public networks.",
    "scale": 1,
    "range": {
      "allowedValues": {
        "values": ["*"]
      }
    }
  },
  {
    "id":  "AtRestEncryption",
    "name":  "AtRestEncryption",
    "description": "This metric is used to assess that object storages, i.e., blob storages, are encrypted at rest.",
    "scale": 1,
    "range": {
      "allowedValues": {
        "values": ["enabled", "disabled"]
      }
    }
  }
]